-------------------------------------------------------------------------------
Test set: com.pwi.controller.AppControllerTest
-------------------------------------------------------------------------------
Tests run: 10, Failures: 0, Errors: 0, Skipped: 0, Time elapsed: 11.437 sec
