<?xml version="1.0" encoding="UTF-8"?>
<!DOCTYPE suite SYSTEM "http://testng.org/testng-1.0.dtd">
<suite verbose="0" name="Failed suite [Command line suite]">
  <test name="Command line test(failed)">
    <classes>
      <class name="com.pwi.controller.LocationControllerTest">
        <methods>
          <include name="saveLocationWithValidationError"/>
          <include name="setUp"/>
        </methods>
      </class> <!-- com.pwi.controller.LocationControllerTest -->
      <class name="com.pwi.controller.AppControllerTest">
        <methods>
          <include name="setUp"/>
        </methods>
      </class> <!-- com.pwi.controller.AppControllerTest -->
      <class name="com.pwi.service.EmployeeServiceImplTest">
        <methods>
          <include name="setUp"/>
        </methods>
      </class> <!-- com.pwi.service.EmployeeServiceImplTest -->
      <class name="com.pwi.dao.EmployeeDaoImplTest">
        <methods>
          <include name="springTestContextBeforeTestClass"/>
          <include name="setUp"/>
          <include name="springTestContextPrepareTestInstance"/>
          <include name="springTestContextAfterTestClass"/>
          <include name="springTestContextBeforeTestMethod"/>
          <include name="springTestContextAfterTestMethod"/>
        </methods>
      </class> <!-- com.pwi.dao.EmployeeDaoImplTest -->
    </classes>
  </test> <!-- Command line test(failed) -->
</suite> <!-- Failed suite [Command line suite] -->
